…
## Example

The package comes pre-loaded with an example dataset for performing
example simulations. (To perform simulation using the package, your
dataset should be formatted in a similar manner):

``` r
## View the example dataset
data("example_sim_data")
example_sim_data
#> $time_map
#> # A tibble: 10,875 x 10
#>    patient_id period days_since_dx miss_ind inpatient    ed ssd1  ssd2  ssd3 
#>         <int>  <dbl>         <dbl>    <int>     <int> <int> <lgl> <lgl> <lgl>
#>  1         21     21           -21        1         0     0 FALSE FALSE TRUE 
#>  2         21     20           -20        1         0     0 TRUE  FALSE FALSE
#>  3         21     17           -17        1         0     0 FALSE TRUE  FALSE
#>  4         21     16           -16        1         0     0 FALSE FALSE FALSE
#>  5         21     14           -14        1         0     0 FALSE TRUE  FALSE
#>  6         21     10           -10        1         0     0 TRUE  FALSE FALSE
#>  7         21      9            -9        1         0     0 FALSE FALSE FALSE
#>  8         21      3            -3        1         0     0 FALSE FALSE FALSE
#>  9         21      2            -2        1         0     0 FALSE FALSE FALSE
#> 10         21      1            -1        1         0     0 FALSE TRUE  TRUE 
#> # … with 10,865 more rows, and 1 more variable: ssd4 <lgl>
…
